Social Network Analysis Demonstration
…
In this section, we prepare our data to be in edgelist format.

Your Turn 

d_long <- d %>% 
  pivot_longer(most_helpful_1:most_helpful_3, names_to = "nominee") %>% 
  mutate(nominee_rank = str_sub(nominee, start = -1),
         nominee_rank = as.integer(nominee_rank)) %>% 
  select(-nominee) %>% 
  filter(!is.na(value))

d_long

## # A tibble: 22 x 3
##    name    value   nominee_rank
##    <chr>   <chr>          <int>
##  1 Mikayla Dylan              1
##  2 Dylan   Faseeha            1
##  3 Ilyaas  Mikayla            1
##  4 Ilyaas  Melody             2
##  5 Wayne   Melody             1
##  6 Wayne   Faseeha            2
##  7 Kaitlyn Melody             1
##  8 Camron  Melody             1
##  9 Camron  Lakota             2
## 10 Melody  Wayne              1
## #  with 12 more rows
…
